#L2Error_tang
#ref	HDG	HdivHDG	H1Lag	H1Pen	
0	5.912265136062862e-05	7.377914488624821e-05	0.00012362588674823716	0.00012362588674826277	
1	9.471721994125528e-06	1.0494113216940565e-05	1.20145110369164e-05	1.2014511036935709e-05	
2	5.883989360541899e-07	6.527591867336001e-07	7.520443459278374e-07	7.520443461270621e-07	
3	3.6440326304929226e-08	4.0435655839315555e-08	4.6829580197427936e-08	4.6829582368936796e-08	
4	2.3143943105822684e-09	2.5123513250047996e-09	2.9187492443708956e-09	2.91875236737862e-09	

